<?xml version="1.0" encoding="utf-8"?>
<svg version="1.1" id="Layer_1" xmlns="http://www.w3.org/2000/svg" xmlns:xlink="http://www.w3.org/1999/xlink" x="0px" y="0px"
	 width="73px" height="89.012px" viewBox="0 0 73 89.012" enable-background="new 0 0 73 89.012" xml:space="preserve">
<path fill="none" d="M36.503,10.437C30.225,10.437,26,14.377,26,21.918v9.094h21v-9.094C47,14.377,42.776,10.437,36.503,10.437z"/>
<path fill="none" d="M36.503,10.437C30.225,10.437,26,14.377,26,21.918v9.094h21v-9.094C47,14.377,42.776,10.437,36.503,10.437z"/>
<path fill="#0982C8" d="M66.49,31.012H57v-7.005C57,8.887,49.912,0,36.002,0C22.091,0,15,8.887,15,24.007v7.005H4.907
	C2.024,31.012,0,34.691,0,37.576v40.707c0,2.869,2.08,5.941,4.81,6.821l6.169,2.158c2.731,0.881,7.235,1.75,10.106,1.75h30.268
	c2.872,0,7.456-0.869,10.188-1.75l6.369-2.086c2.729-0.88,5.09-4.024,5.09-6.894V37.576C73,34.691,69.369,31.012,66.49,31.012z
	 M47,31.012H26v-9.094c0-7.541,4.225-11.482,10.503-11.482C42.776,10.437,47,14.377,47,21.918V31.012z"/>
</svg>
